_________                      __  .__                ___________                     __  .__
\_   ___ \_______  _________ _/  |_|__|____    ____   \_   _____/______  ____   _____/  |_|__| ___________
/    \  \/\_  __ \/  _ \__  \\   __\  \__  \  /    \   |    __) \_  __ \/  _ \ /    \   __\  |/ __ \_  __ \
\     \____|  | \(  <_> ) __ \|  | |  |/ __ \|   |  \  |     \   |  | \(  <_> )   |  \  | |  \  ___/|  | \/
 \______  /|__|   \____(____  /__| |__(____  /___|  /  \___  /   |__|   \____/|___|  /__| |__|\___  >__|
        \/                  \/             \/     \/       \/                      \/             \/
:: mlwicbd-rest :: ${application.formatted-version}
:: Spring Boot :: ${spring-boot.formatted-version}
